{
    "data": [
      {
        "name": "libero",
        "price": 733,
        "rating": 2.86,
        "href": {
          "link": "http://localhost/api/products/1"
        }
      },
      {
        "name": "non",
        "price": 187,
        "rating": 2.22,
        "href": {
          "link": "http://localhost/api/products/2"
        }
      },
      {
        "name": "maiores",
        "price": 333,
        "rating": 1.33,
        "href": {
          "link": "http://localhost/api/products/3"
        }
      },
      {
        "name": "sed",
        "price": 993,
        "rating": 3,
        "href": {
          "link": "http://localhost/api/products/4"
        }
      },
      {
        "name": "aut",
        "price": 171,
        "rating": "No rating yet",
        "href": {
          "link": "http://localhost/api/products/5"
        }
      }
    ],
    "links": {
      "first": "http://localhost/api/products?page=1",
      "last": "http://localhost/api/products?page=10",
      "prev": null,
      "next": "http://localhost/api/products?page=2"
    },
    "meta": {
      "current_page": 1,
      "from": 1,
      "last_page": 10,
      "path": "http://localhost/api/products",
      "per_page": 5,
      "to": 5,
      "total": 50
    }
  }